…
``` r
n <- c(1:10000)
result_n <- lapply(n, gen_collatz) 

collatz_df <- tibble(
  start = n,
  seq = result_n
)
```

``` r
collatz_df
```

    ## # A tibble: 10,000 × 2
    ##    start seq       
    ##    <int> <list>    
    ##  1     1 <dbl [1]> 
    ##  2     2 <dbl [2]> 
    ##  3     3 <dbl [8]> 
    ##  4     4 <dbl [3]> 
    ##  5     5 <dbl [6]> 
    ##  6     6 <dbl [9]> 
    ##  7     7 <dbl [17]>
    ##  8     8 <dbl [4]> 
    ##  9     9 <dbl [20]>
    ## 10    10 <dbl [7]> 
    ## # ℹ 9,990 more rows
…
``` r
collatz_df <- mutate(.data = collatz_df,
                     length = as.double(sapply(seq, length)),
                     parity = case_when(start %% 2 == 0 ~ 'Even',
                                        start %% 2 != 0 ~ 'Odd'),
                     max_val = sapply(seq, max)
)
```

``` r
collatz_df
```

    ## # A tibble: 10,000 × 5
    ##    start seq        length parity max_val
    ##    <int> <list>      <dbl> <chr>    <dbl>
    ##  1     1 <dbl [1]>       1 Odd          1
    ##  2     2 <dbl [2]>       2 Even         2
    ##  3     3 <dbl [8]>       8 Odd         16
    ##  4     4 <dbl [3]>       3 Even         4
    ##  5     5 <dbl [6]>       6 Odd         16
    ##  6     6 <dbl [9]>       9 Even        16
    ##  7     7 <dbl [17]>     17 Odd         52
    ##  8     8 <dbl [4]>       4 Even         8
    ##  9     9 <dbl [20]>     20 Odd         52
    ## 10    10 <dbl [7]>       7 Even        16
    ## # ℹ 9,990 more rows
…
